0.4	610	um_ ukovaný meč
0.41	608	pom_t na předky
0.47	679	uzem_ní
0.48	676	dom_lý zločin
0.51	71	připom_l jsem mu to
0.51	689	zapom_tlivá dívka
0.52	605	zapom_tlivost
0.53	64	soukrom_
0.58	640	Zapomněl m_ vzít kávu.
0.59	70	máme se náram_
0.59	691	zatem_ní oken
0.61	69	nerozum_l jsem mu
0.63	667	tem_jící obloha
0.64	671	Dal m_ pět zlatých.
0.65	684	přišel po m_
0.65	677	z_mělý hoch
0.66	605	vyslovit dom_nku
0.66	680	něžné ob_tí
0.66	665	pevné ob_tí
0.67	714	tam_jší  kostel
0.67	670	Co po m_ zůstane?
0.68	560	nedorozum_ní
0.68	655	podivné v_my
0.68	675	Včera si na mě vzpom_l.
0.69	77	Co si o m_ myslíš?
0.69	607	k narozeninám m_ dali knihu
0.69	598	tam_jší obyvatelé
0.69	603	extrém_ náročný závod
0.69	672	přesná dom_nka
0.69	78	nemluv o m_ škaredě
0.7	66	přím_jší cesta
0.7	593	vzpom_l jsem si
0.7	74	dom_nka
0.7	64	nejrozumn_jší
0.71	670	pom_nka
0.71	653	Dorazil až po m_.
0.73	612	dej ten koláč m_
0.73	73	nejznám_jší
0.73	687	ob_dnat oběd
0.73	66	Mluvili o m_.
0.73	654	Je to ve m_.
0.73	654	ob_vná studie
0.73	67	napiš m_ dopis
0.75	71	samozřejm_
0.75	673	jednal skrom_
0.76	70	jem_jší
0.76	585	povídali si o m_
0.77	645	ob_ktiv fotoaparátu
0.77	683	převratný ob_v
0.77	583	nejvýznam_jší
0.77	598	ob_vný výzkum
0.77	79	auto musí překážku ob_t
0.77	66	podezřelý ob_kt
0.77	581	pro jem_jší vlasy
0.78	67	tomu nemůžeš rozum_t
0.78	663	ob_vil se zrána
0.78	659	ob_ktivní zpravodajství
0.78	672	příjem_jší společník
0.78	1275	chovej se rozum_
0.79	690	náhlé z_vení
0.79	591	ob_dnávka
0.79	72	nejtem_jší
0.79	68	Pojď ke m_.
0.8	65	rozum_jší
0.8	645	přišel si pro m_
0.8	587	ob_mná nádoba
0.81	658	ob_mná zásilka
0.82	66	vzájem_ se osolte
0.82	62	skrom_jší
0.82	664	podivný z_v
0.83	679	byl úplně prom_něný
0.83	579	prom_nlivé počasí
0.83	665	ob_žník klubu
0.83	613	říkám to upřím_
0.83	675	rum_nka
0.83	683	Vrazil do m_ jehlu.
0.84	668	kromě m_
0.84	61	vědom_ lhal
0.84	584	šel tam beze m_
0.84	68	ob_vitel
0.84	69	beze m_
0.84	657	jez střídm_
0.85	73	střídm_jší
0.85	660	ob_tavec
0.85	679	kruhový ob_zd
0.86	69	tajem_
0.86	684	ob_tovat bohům
0.86	656	obm_na šatníku
0.86	667	Zřejm_ se mýlíš.
0.86	74	sebevědom_jší
0.87	663	ob_žná dráha
0.87	683	rozm_lnit
0.87	683	penězom_nci
0.88	65	znělo to tajem_
0.88	663	ob_ti války
0.88	74	Kromě m_ tam nikdo nebyl.
0.88	686	p_t ódy
0.88	665	oněm_l úžasem
0.88	592	ob_tní beránek
0.88	635	ob_žnice Země
0.88	68	nevšiml si m_
0.88	661	Choval se lakom_.
0.88	665	m_ňavec
0.89	680	zápalná ob_ť
0.89	587	zdědil velké jm_ní
0.89	663	směšná odm_na
0.89	673	Pojal m_ za vlastního.
0.89	585	určitě m_ nepozvou
0.89	672	Bolest m_ ovládá.
0.89	684	ob_hl stodolu
0.9	575	odříkal báseň zpam_ti
0.9	554	stoupal strm_ do kopce
0.9	655	odříkával zpam_ti
0.9	590	Petr m_ potkal
0.91	67	Máš m_ rád?
0.91	67	Kdo m_ ráno vzbudí?
0.91	682	sp_t ke konci
0.92	673	strm_l nad kopci
0.92	685	osam_lý tulák
0.92	674	Nem_ň to!
0.92	580	rum_nec na tváři
0.92	669	v_jička
0.92	675	neplatná sm_nka
0.93	608	pam_tník
0.93	689	rozuměl pom_rně dobře
0.93	588	šum_ní potoka
0.93	680	vym_nit pneumatiku
0.93	669	očekávaná zv_st
0.93	590	pam_tihodnost
0.93	659	nap_chovat slámu
0.94	664	vlakové náv_stí
0.94	681	úp_t bolestí
0.94	668	vým_na stráží
0.94	64	nemá m_ rád
0.94	657	dub_nka
0.94	670	ob_dová pauza
0.94	680	záv_je sněhu
0.94	590	osam_lý jezdec
0.94	651	nezm_rné utrpení
0.95	665	zavládlo nap_tí
0.95	665	cizí m_na
0.95	666	bohatý ob_d
0.95	74	Něco m_ píchlo.
0.95	668	sm_nit drobné
0.95	652	sm_stnat
0.95	652	osm_lil se
0.95	578	m_lký rybník
0.95	679	dobré zam_stnání
0.95	663	zm_nit identitu
0.95	653	jako v_chýtek
0.95	579	odm_na za vítězství
0.95	670	úp_nlivá žádost
0.95	684	výhodná koup_
0.95	663	pom_řovat síly
0.96	694	m_lká rána
0.96	662	dřevěné v_dro
0.96	682	na Jáv_
0.96	636	stříbrop_nný potok
0.96	688	P_na dní
0.96	74	spát na slám_
0.96	76	mrzí m_ to
0.96	667	nastoupili sebev_domě
0.96	667	v klidu si hov_t
0.96	578	kolob_h vody
0.96	668	milostný pom_r
0.96	669	sm_sný odpad
0.96	646	sv_domitá práce
0.97	666	v klop_ kabátu
0.97	668	vzácné um_ní
0.97	671	pov_sit kabát
0.97	61	vým_na
0.97	62	to m_ nezajímá
0.97	62	potm_šilý nápad
0.97	652	m_řicí přístroje
0.97	672	v_ková bariéra
0.97	673	holoub_
0.97	646	zdobené záv_sy
0.97	65	Vidíš m_?
0.97	687	sb_rač vzorků
0.97	665	sm_šný člověk
0.97	669	podv_domí
0.97	672	po hlav_
0.97	644	p_nkavy
0.97	644	v dom_
0.97	649	významně přisp_l
0.97	689	Vezmi m_ s sebou.
0.97	69	průb_h zápasu
0.97	592	odb_r krve
0.97	594	zbab_lý
0.97	669	růžové poup_
0.97	674	v_tný podmět
0.97	641	v_rozvěstové
0.97	643	shovívav_
0.97	682	konec m_síce
0.97	686	sb_r železa
0.97	654	dračí doup_
0.97	659	Typov_ se hodil.
0.97	664	b_žný den
0.97	674	na ostrov_
0.97	640	všechny odpov_di
0.97	678	výb_h koní
0.97	684	kovov_ zachrastilo
0.97	686	pov_domá píseň
0.97	651	na hrob_
0.97	657	záv_sné lůžko
0.97	584	kolob_žka
0.97	673	na v_ky
0.98	681	zv_davá sousedka
0.98	648	pov_řit
0.98	663	na korb_
0.98	672	rozžhavený do b_la
0.98	676	v_šák na kabáty
0.98	680	zav_třit stopu
0.98	667	sv_telný kužel
0.98	675	ocelová p_st
0.98	676	jednal drav_
0.98	566	m_děný drát
0.98	625	osobní výpov_ď
0.98	654	špatná pov_st
0.98	658	hrbolatá p_šina
0.98	662	p_na do koupele
0.98	681	b_hací boty
0.98	590	m_kká postel
0.98	509	sb_rači míčků
0.98	684	platil hotov_
0.98	684	vysp_lý národ
0.98	577	káv_nky
0.98	698	hov_zí svíčková
0.98	605	zatmění M_síce
0.98	679	drogov_ závislý
0.98	62	zm_na
0.98	577	rudá hv_zda
0.98	645	hlavní m_sto
0.98	586	populární zp_vák
0.98	659	v káv_
0.99	677	hladov_ pokukoval
0.99	647	artróza záp_stí
0.99	72	viděli hříb_
0.99	656	p_t korun
0.99	586	bronzov_ se zatřpytila
0.99	660	jdeme zp_t
0.99	597	po dlouhé dob_
0.99	589	po láv_
0.99	602	obě dv_
0.99	582	stav_t se na odpor
0.99	588	kv_tovaný vzor
0.99	592	Staré pov_sti české
