0.52	305	Ing. Tereza Svobodná, _
0.52	295	pracovat na _
0.54	304	viz _
0.55	306	Jihočeské mlékárny, _
0.56	307	_ rychlost
0.56	309	_ běžec
0.57	302	výsledek zápasu _
0.59	291	Pražská energetika_
0.59	296	mít teplotu _
0.6	295	_ problém
0.62	299	založit vlastní _
0.63	291	_ Tomáš Novotný
0.63	291	_ návštěvník
0.64	284	rodný dům _ Saudků
0.65	304	poměr stran _
0.66	299	Setkali se v květnu _
0.68	286	spor o _ zelenohorský a královédvorský
0.69	302	zhruba v 66° _
0.69	294	v 1600 _
0.69	318	_ oddíl 5
0.71	315	_ Nováková
0.71	288	Logaritmická _ ti pomůže.
0.71	298	výpočet _
0.72	312	_ devět dní do konce roku
0.73	304	_ Jan Dohnal
0.74	295	_ menšina
0.74	297	Sparta _ Slavia
0.74	299	_ strana 5
0.75	300	_ let
0.75	285	získat titul _
0.75	297	_ stranu 4
0.76	291	mapa v měřítku _
0.76	296	Najdete to na _
0.76	292	bydlet v _ Čechách
0.76	296	Byl tam i _ Zeman.
0.77	302	doba _
0.78	289	_ Pavel Sobotka
0.79	291	správa _ Podyjí
0.8	296	vážit _ kolo
0.81	304	nakoupit za _
0.82	305	Antonio Banderas je _ herec.
0.82	306	Rád sportuje, _ rád běhá.
0.82	278	návštěva u _ Kopeckého
0.83	288	Sejdeme se _ hodině.
0.83	293	Bělá _ Pradědem
0.84	304	opsat to _
0.84	300	Pracoval tam v období _ 2000.
0.84	293	vyhrát _ dolarů
0.84	295	Cesta trvala _ půl hodiny.
0.84	289	zvýšení _ a prům. výroby
0.85	284	Ze zpěváků tam vystoupil _ i Karel Gott.
0.85	300	žáci _
0.85	308	piji _
0.85	288	úrok _
0.85	303	_ Pálava
0.85	293	_ Novák
0.86	290	Přišel _ Novák.
0.86	296	znát _
0.87	287	utratit _
0.87	875	podepsán _
0.87	303	1. pád _
0.88	312	rychlost 130 _
0.88	291	nějaký dravec _ káně
0.89	293	Kino začíná _
0.89	300	navštívit Ústí _
0.89	292	Největší obrat měla Pražská plynárenská, _
0.9	293	_ šunky
0.91	287	_ 071 Kč
0.91	287	podepsáno v září _
0.91	288	Ke sčítání, odčítání _ používáme kalkulačku.
0.91	302	mateřídouška, _ thymus
0.91	283	Jan Novák _
0.91	316	_ dlouhá cesta
0.91	284	Kup mi čokoládu, _ lentilky.
0.91	297	sejít se v _
0.91	292	Petr Mlynář, ved. studijního _
0.91	303	hrušky, švestky, jablka _
0.92	285	Viděli v pavilonu lvy, tygry _
0.92	295	Nicejský koncil se konal _
0.92	291	_ Jana Vlašicová
0.93	294	Světlá _Sázavou
0.93	296	Společnost má cenu _
0.93	288	_ výročí
0.93	292	o víkendu, _ v sobotu a neděli
0.93	313	Jan Těsnohlídek _
0.93	302	5. pádem _ voláme
0.94	286	vypít _ mléka
0.94	291	Chtěl bych psa, _ dobrmana.
0.94	282	bydlet v _
0.94	305	Byl tam _ i Pavel.
0.94	306	Narodila jsem se _ v Brně.
0.95	293	Přijeď co nejrychleji, _ ještě dnes.
0.95	300	do peněženky, _ kasírky
0.95	286	_ ročník soutěže
0.95	280	_ ledna
0.96	285	historie _ opevnění
0.96	291	Václav _
0.96	323	narozen _
0.97	293	navštívit _ pohádkové jeskyně
0.97	285	Vyrábíme budíky, hodinky _
